EESchema Schematic File Version 4
LIBS:raspberrypi_zerow_uhat-cache
EELAYER 29 0
EELAYER END
$Descr A4 11693 8268
encoding utf-8
Sheet 2 2
Title ""
Date ""
Rev ""
Comp ""
Comment1 ""
Comment2 ""
Comment3 ""
Comment4 ""
$EndDescr
$Comp
L Device:LED D7
U 1 1 60B6BC20
P 4900 5050
F 0 "D7" H 4893 5266 50  0000 C CNN
F 1 "LED" H 4893 5175 50  0000 C CNN
F 2 "" H 4900 5050 50  0001 C CNN
F 3 "~" H 4900 5050 50  0001 C CNN
	1    4900 5050
	-1   0    0    1   
$EndComp
$Comp
L Device:LED D6
U 1 1 60B6C169
P 4900 4550
F 0 "D6" H 4893 4766 50  0000 C CNN
F 1 "LED" H 4893 4675 50  0000 C CNN
F 2 "" H 4900 4550 50  0001 C CNN
F 3 "~" H 4900 4550 50  0001 C CNN
	1    4900 4550
	-1   0    0    1   
$EndComp
$Comp
L Device:LED D5
U 1 1 60B6C817
P 4900 4100
F 0 "D5" H 4893 4316 50  0000 C CNN
F 1 "LED" H 4893 4225 50  0000 C CNN
F 2 "" H 4900 4100 50  0001 C CNN
F 3 "~" H 4900 4100 50  0001 C CNN
	1    4900 4100
	-1   0    0    1   
$EndComp
$Comp
L Device:LED D4
U 1 1 60B6CF47
P 4900 3650
F 0 "D4" H 4893 3866 50  0000 C CNN
F 1 "LED" H 4893 3775 50  0000 C CNN
F 2 "" H 4900 3650 50  0001 C CNN
F 3 "~" H 4900 3650 50  0001 C CNN
	1    4900 3650
	-1   0    0    1   
$EndComp
$Comp
L Device:LED D3
U 1 1 60B6D3F3
P 4900 3250
F 0 "D3" H 4893 3466 50  0000 C CNN
F 1 "LED" H 4893 3375 50  0000 C CNN
F 2 "" H 4900 3250 50  0001 C CNN
F 3 "~" H 4900 3250 50  0001 C CNN
	1    4900 3250
	-1   0    0    1   
$EndComp
$Comp
L Device:LED D2
U 1 1 60B6D548
P 4900 2850
F 0 "D2" H 4893 3066 50  0000 C CNN
F 1 "LED" H 4893 2975 50  0000 C CNN
F 2 "" H 4900 2850 50  0001 C CNN
F 3 "~" H 4900 2850 50  0001 C CNN
	1    4900 2850
	-1   0    0    1   
$EndComp
$Comp
L Device:R_Small R7
U 1 1 60B6D9C1
P 4300 5050
F 0 "R7" V 4104 5050 50  0000 C CNN
F 1 "R_Small" V 4195 5050 50  0000 C CNN
F 2 "" H 4300 5050 50  0001 C CNN
F 3 "~" H 4300 5050 50  0001 C CNN
	1    4300 5050
	0    -1   -1   0   
$EndComp
$Comp
L Device:R_Small R6
U 1 1 60B6DD0F
P 4300 4550
F 0 "R6" V 4104 4550 50  0000 C CNN
F 1 "R_Small" V 4195 4550 50  0000 C CNN
F 2 "" H 4300 4550 50  0001 C CNN
F 3 "~" H 4300 4550 50  0001 C CNN
	1    4300 4550
	0    -1   -1   0   
$EndComp
$Comp
L Device:R_Small R5
U 1 1 60B6E29D
P 4300 4100
F 0 "R5" V 4104 4100 50  0000 C CNN
F 1 "R_Small" V 4195 4100 50  0000 C CNN
F 2 "" H 4300 4100 50  0001 C CNN
F 3 "~" H 4300 4100 50  0001 C CNN
	1    4300 4100
	0    -1   -1   0   
$EndComp
$Comp
L Device:R_Small R4
U 1 1 60B6E421
P 4300 3650
F 0 "R4" V 4104 3650 50  0000 C CNN
F 1 "R_Small" V 4195 3650 50  0000 C CNN
F 2 "" H 4300 3650 50  0001 C CNN
F 3 "~" H 4300 3650 50  0001 C CNN
	1    4300 3650
	0    -1   -1   0   
$EndComp
$Comp
L Device:R_Small R3
U 1 1 60B6E5A5
P 4300 3250
F 0 "R3" V 4104 3250 50  0000 C CNN
F 1 "R_Small" V 4195 3250 50  0000 C CNN
F 2 "" H 4300 3250 50  0001 C CNN
F 3 "~" H 4300 3250 50  0001 C CNN
	1    4300 3250
	0    -1   -1   0   
$EndComp
$Comp
L Device:R_Small R2
U 1 1 60B6E74E
P 4300 2850
F 0 "R2" V 4104 2850 50  0000 C CNN
F 1 "R_Small" V 4195 2850 50  0000 C CNN
F 2 "" H 4300 2850 50  0001 C CNN
F 3 "~" H 4300 2850 50  0001 C CNN
	1    4300 2850
	0    -1   -1   0   
$EndComp
Wire Wire Line
	4750 5050 4400 5050
Wire Wire Line
	4400 4550 4750 4550
Wire Wire Line
	4750 4100 4400 4100
Wire Wire Line
	4400 3650 4750 3650
Wire Wire Line
	4750 3250 4400 3250
Wire Wire Line
	4400 2850 4750 2850
Text GLabel 5850 5600 0    50   Input ~ 0
GND
Wire Wire Line
	4200 5050 3600 5050
Wire Wire Line
	5900 2500 5900 2850
Wire Wire Line
	5900 5600 5850 5600
Wire Wire Line
	4200 4550 3600 4550
Wire Wire Line
	3600 4100 4200 4100
Wire Wire Line
	4200 3650 3600 3650
Wire Wire Line
	3600 3250 4200 3250
Wire Wire Line
	4200 2850 3600 2850
Wire Wire Line
	5050 2850 5900 2850
Wire Wire Line
	5900 3250 5050 3250
Wire Wire Line
	5900 3650 5050 3650
Wire Wire Line
	5050 4100 5900 4100
Wire Wire Line
	5900 4550 5050 4550
Wire Wire Line
	5050 5050 5900 5050
$Comp
L Device:LED D1
U 1 1 60B73038
P 4900 2500
F 0 "D1" H 4893 2716 50  0000 C CNN
F 1 "LED" H 4893 2625 50  0000 C CNN
F 2 "" H 4900 2500 50  0001 C CNN
F 3 "~" H 4900 2500 50  0001 C CNN
	1    4900 2500
	-1   0    0    1   
$EndComp
Wire Wire Line
	5900 2500 5050 2500
Wire Wire Line
	4750 2500 4400 2500
Wire Wire Line
	4200 2500 3600 2500
Connection ~ 5900 5050
Wire Wire Line
	5900 5050 5900 5600
Connection ~ 5900 2850
Connection ~ 5900 3250
Connection ~ 5900 3650
Connection ~ 5900 4100
Connection ~ 5900 4550
Wire Wire Line
	5900 2850 5900 3250
Wire Wire Line
	5900 3250 5900 3650
Wire Wire Line
	5900 3650 5900 4100
Wire Wire Line
	5900 4100 5900 4550
Wire Wire Line
	5900 4550 5900 5050
$Comp
L Device:R_Small R1
U 1 1 60B72B29
P 4300 2500
F 0 "R1" V 4104 2500 50  0000 C CNN
F 1 "R_Small" V 4195 2500 50  0000 C CNN
F 2 "" H 4300 2500 50  0001 C CNN
F 3 "~" H 4300 2500 50  0001 C CNN
	1    4300 2500
	0    -1   -1   0   
$EndComp
Text HLabel 3600 2500 0    50   Input ~ 0
GPIO13
Text HLabel 3600 2850 0    50   Input ~ 0
GPIO19
Text HLabel 3600 3250 0    50   Input ~ 0
GPIO26
Text HLabel 3600 3650 0    50   Input ~ 0
GPIO21
Text HLabel 3600 4100 0    50   Input ~ 0
GPIO20
Text HLabel 3600 4550 0    50   Input ~ 0
GPIO16
Text HLabel 3600 5050 0    50   Input ~ 0
GPIO12
$EndSCHEMATC
