EESchema Schematic File Version 4
LIBS:_saved_raspberrypi_zerow_uhat-cache
EELAYER 29 0
EELAYER END
$Descr A4 11693 8268
encoding utf-8
Sheet 5 5
Title "Texas Instruments "
Date ""
Rev ""
Comp ""
Comment1 ""
Comment2 ""
Comment3 ""
Comment4 ""
$EndDescr
$Comp
L Driver_Motor:DRV8308 U5
U 1 1 60BA8851
P 4850 4350
F 0 "U5" H 4850 3361 50  0000 C CNN
F 1 "DRV8308" H 4850 3270 50  0000 C CNN
F 2 "Package_DFN_QFN:Texas_S-PVQFN-N40_EP3.52x2.62mm" H 4900 3350 50  0001 C CNN
F 3 "http://www.ti.com/lit/ds/symlink/drv8308.pdf" H 4150 5800 50  0001 C CNN
	1    4850 4350
	1    0    0    -1  
$EndComp
$Comp
L power:GND #PWR06
U 1 1 60BA93B3
P 6750 4650
F 0 "#PWR06" H 6750 4400 50  0001 C CNN
F 1 "GND" H 6755 4477 50  0000 C CNN
F 2 "" H 6750 4650 50  0001 C CNN
F 3 "" H 6750 4650 50  0001 C CNN
	1    6750 4650
	0    -1   -1   0   
$EndComp
$Comp
L power:GND #PWR07
U 1 1 60BA955C
P 6750 4850
F 0 "#PWR07" H 6750 4600 50  0001 C CNN
F 1 "GND" H 6755 4677 50  0000 C CNN
F 2 "" H 6750 4850 50  0001 C CNN
F 3 "" H 6750 4850 50  0001 C CNN
	1    6750 4850
	0    -1   -1   0   
$EndComp
$Comp
L power:GND #PWR08
U 1 1 60BA985A
P 6750 5050
F 0 "#PWR08" H 6750 4800 50  0001 C CNN
F 1 "GND" H 6755 4877 50  0000 C CNN
F 2 "" H 6750 5050 50  0001 C CNN
F 3 "" H 6750 5050 50  0001 C CNN
	1    6750 5050
	0    -1   -1   0   
$EndComp
Wire Wire Line
	5650 4650 6750 4650
Wire Wire Line
	5650 4850 6750 4850
Wire Wire Line
	5650 5050 6750 5050
Wire Wire Line
	5650 4750 6100 4750
Wire Wire Line
	5650 4950 6100 4950
Wire Wire Line
	5750 3050 5650 3050
$Comp
L Device:Q_NMOS_DSG Q3
U 1 1 60BAE1CD
P 7250 1900
F 0 "Q3" H 7456 1946 50  0000 L CNN
F 1 "Q_NMOS_DSG" H 7456 1855 50  0000 L CNN
F 2 "Package_TO_SOT_SMD:Texas_DRT-3" H 7450 2000 50  0001 C CNN
F 3 "~" H 7250 1900 50  0001 C CNN
	1    7250 1900
	1    0    0    -1  
$EndComp
$Comp
L Device:Q_NMOS_DSG Q2
U 1 1 60BB1DAD
P 7250 1350
F 0 "Q2" H 7456 1396 50  0000 L CNN
F 1 "Q_NMOS_DSG" H 7456 1305 50  0000 L CNN
F 2 "Package_TO_SOT_SMD:SuperSOT-3" H 7450 1450 50  0001 C CNN
F 3 "~" H 7250 1350 50  0001 C CNN
	1    7250 1350
	1    0    0    -1  
$EndComp
Wire Wire Line
	7350 1600 7350 1550
Wire Wire Line
	7350 1700 7350 1600
Connection ~ 7350 1600
$Comp
L Device:Q_NMOS_DSG Q4
U 1 1 60BB3A22
P 7250 2500
F 0 "Q4" H 7456 2546 50  0000 L CNN
F 1 "Q_NMOS_DSG" H 7456 2455 50  0000 L CNN
F 2 "Package_TO_SOT_SMD:Texas_DRT-3" H 7450 2600 50  0001 C CNN
F 3 "~" H 7250 2500 50  0001 C CNN
	1    7250 2500
	1    0    0    -1  
$EndComp
$Comp
L Device:Q_NMOS_DSG Q5
U 1 1 60BB538F
P 7250 3000
F 0 "Q5" H 7456 3046 50  0000 L CNN
F 1 "Q_NMOS_DSG" H 7456 2955 50  0000 L CNN
F 2 "Package_TO_SOT_SMD:Texas_DRT-3" H 7450 3100 50  0001 C CNN
F 3 "~" H 7250 3000 50  0001 C CNN
	1    7250 3000
	1    0    0    -1  
$EndComp
Wire Wire Line
	7350 2800 7350 2750
$Comp
L Device:Q_NMOS_DSG Q6
U 1 1 60BC55C9
P 7250 3550
F 0 "Q6" H 7456 3596 50  0000 L CNN
F 1 "Q_NMOS_DSG" H 7456 3505 50  0000 L CNN
F 2 "Package_TO_SOT_SMD:Texas_DRT-3" H 7450 3650 50  0001 C CNN
F 3 "~" H 7250 3550 50  0001 C CNN
	1    7250 3550
	1    0    0    -1  
$EndComp
$Comp
L Device:Q_NMOS_DSG Q7
U 1 1 60BC676F
P 7250 4000
F 0 "Q7" H 7456 4046 50  0000 L CNN
F 1 "Q_NMOS_DSG" H 7456 3955 50  0000 L CNN
F 2 "Package_TO_SOT_SMD:Texas_DRT-3" H 7450 4100 50  0001 C CNN
F 3 "~" H 7250 4000 50  0001 C CNN
	1    7250 4000
	1    0    0    -1  
$EndComp
Wire Wire Line
	7350 3800 7350 3750
Wire Wire Line
	5750 1350 7050 1350
Wire Wire Line
	5750 1350 5750 3050
Wire Wire Line
	5650 3150 5950 3150
Wire Wire Line
	5950 3150 5950 1600
Wire Wire Line
	5950 1600 7350 1600
Wire Wire Line
	6150 1900 6150 3250
Wire Wire Line
	6150 3250 5650 3250
Wire Wire Line
	6150 1900 7050 1900
Wire Wire Line
	5650 3450 6450 3450
Wire Wire Line
	6450 3450 6450 2500
Wire Wire Line
	6450 2500 7050 2500
Wire Wire Line
	6550 2750 6550 3550
Connection ~ 7350 2750
Wire Wire Line
	7350 2750 7350 2700
Wire Wire Line
	6650 3000 7050 3000
Wire Wire Line
	6550 3550 5650 3550
Wire Wire Line
	6550 2750 7350 2750
Wire Wire Line
	6650 3000 6650 3650
Wire Wire Line
	6650 3650 5650 3650
Wire Wire Line
	5650 3850 6800 3850
Wire Wire Line
	6800 3850 6800 3550
Wire Wire Line
	6800 3550 7050 3550
Wire Wire Line
	5650 4050 6800 4050
Wire Wire Line
	6800 4050 6800 4000
Wire Wire Line
	6800 4000 7050 4000
Wire Wire Line
	5650 3950 6800 3950
Wire Wire Line
	6800 3950 6800 3900
Wire Wire Line
	6800 3900 7100 3900
Wire Wire Line
	7100 3900 7100 3800
Wire Wire Line
	7100 3800 7350 3800
Connection ~ 7350 3800
$Comp
L Device:R_Small R22
U 1 1 60BCF508
P 8600 4350
F 0 "R22" V 8404 4350 50  0000 C CNN
F 1 "R_Small" V 8495 4350 50  0000 C CNN
F 2 "Resistor_THT:R_Axial_DIN0204_L3.6mm_D1.6mm_P1.90mm_Vertical" H 8600 4350 50  0001 C CNN
F 3 "~" H 8600 4350 50  0001 C CNN
	1    8600 4350
	0    1    1    0   
$EndComp
$Comp
L power:GND #PWR09
U 1 1 60BCFC2D
P 8950 4350
F 0 "#PWR09" H 8950 4100 50  0001 C CNN
F 1 "GND" V 8955 4222 50  0000 R CNN
F 2 "" H 8950 4350 50  0001 C CNN
F 3 "" H 8950 4350 50  0001 C CNN
	1    8950 4350
	0    -1   -1   0   
$EndComp
Wire Wire Line
	8700 4350 8950 4350
Wire Wire Line
	5650 4350 8350 4350
Wire Wire Line
	7350 2100 8350 2100
Wire Wire Line
	8350 2100 8350 3200
Connection ~ 8350 4350
Wire Wire Line
	8350 4350 8500 4350
Wire Wire Line
	7350 3200 8350 3200
Connection ~ 8350 3200
Wire Wire Line
	7350 4200 8350 4200
Wire Wire Line
	8350 3200 8350 4200
Connection ~ 8350 4200
Wire Wire Line
	8350 4200 8350 4350
Text HLabel 6100 4750 2    50   Input ~ 0
U2
Text HLabel 6100 4950 2    50   Input ~ 0
U3
Text HLabel 6100 4550 2    50   Input ~ 0
U1
Wire Wire Line
	6100 4550 5650 4550
Wire Wire Line
	7350 2750 9650 2750
Wire Wire Line
	7350 3800 8950 3800
Wire Wire Line
	8950 3800 8950 3000
Wire Wire Line
	8950 3000 9650 3000
Wire Wire Line
	7350 1600 8950 1600
Wire Wire Line
	8950 1600 8950 2550
Wire Wire Line
	8950 2550 9650 2550
Text HLabel 9650 2550 2    50   Input ~ 0
U
Text HLabel 9650 2750 2    50   Input ~ 0
V
Text HLabel 9650 3000 2    50   Input ~ 0
W
Text Label 5050 2350 0    50   ~ 0
VM
$Comp
L Device:C C5
U 1 1 60BED115
P 4950 2100
F 0 "C5" H 5065 2146 50  0000 L CNN
F 1 "0.1uF" H 5065 2055 50  0000 L CNN
F 2 "Capacitor_THT:C_Disc_D4.3mm_W1.9mm_P5.00mm" H 4988 1950 50  0001 C CNN
F 3 "~" H 4950 2100 50  0001 C CNN
	1    4950 2100
	1    0    0    -1  
$EndComp
$Comp
L power:GND #PWR03
U 1 1 60BEECE9
P 4950 1750
F 0 "#PWR03" H 4950 1500 50  0001 C CNN
F 1 "GND" H 4955 1577 50  0000 C CNN
F 2 "" H 4950 1750 50  0001 C CNN
F 3 "" H 4950 1750 50  0001 C CNN
	1    4950 1750
	-1   0    0    1   
$EndComp
Wire Wire Line
	4950 1750 4950 1950
Wire Wire Line
	4950 2250 4950 2350
$Comp
L Device:C C2
U 1 1 60BF2354
P 3400 3050
F 0 "C2" H 3515 3096 50  0000 L CNN
F 1 "0.1uF" H 3515 3005 50  0000 L CNN
F 2 "Capacitor_THT:C_Disc_D3.8mm_W2.6mm_P2.50mm" H 3438 2900 50  0001 C CNN
F 3 "~" H 3400 3050 50  0001 C CNN
	1    3400 3050
	1    0    0    -1  
$EndComp
Wire Wire Line
	3400 2900 3750 2900
Wire Wire Line
	3750 2900 3750 3050
Wire Wire Line
	3750 3050 4050 3050
Wire Wire Line
	4050 3150 3750 3150
Wire Wire Line
	3750 3150 3750 3200
Wire Wire Line
	3750 3200 3400 3200
$Comp
L Device:C C4
U 1 1 60BF52FB
P 4650 2350
F 0 "C4" H 4765 2396 50  0000 L CNN
F 1 "1uF" H 4765 2305 50  0000 L CNN
F 2 "Capacitor_THT:C_Disc_D4.3mm_W1.9mm_P5.00mm" H 4688 2200 50  0001 C CNN
F 3 "~" H 4650 2350 50  0001 C CNN
	1    4650 2350
	1    0    0    -1  
$EndComp
Wire Wire Line
	4950 2350 5050 2350
Wire Wire Line
	4650 2500 4650 2850
Text Label 4650 2050 0    50   ~ 0
VM
Wire Wire Line
	4650 2050 4650 2200
$Comp
L Device:C C3
U 1 1 60BFBB93
P 4300 2550
F 0 "C3" H 4415 2596 50  0000 L CNN
F 1 "0.1uF" H 4415 2505 50  0000 L CNN
F 2 "Capacitor_THT:C_Disc_D4.3mm_W1.9mm_P5.00mm" H 4338 2400 50  0001 C CNN
F 3 "~" H 4300 2550 50  0001 C CNN
	1    4300 2550
	1    0    0    -1  
$EndComp
Wire Wire Line
	4300 2700 4300 2800
Wire Wire Line
	4300 2800 4550 2800
Wire Wire Line
	4550 2800 4550 2850
Wire Wire Line
	4300 2400 4300 2200
$Comp
L power:GND #PWR02
U 1 1 60BFFEEF
P 4300 2200
F 0 "#PWR02" H 4300 1950 50  0001 C CNN
F 1 "GND" H 4305 2027 50  0000 C CNN
F 2 "" H 4300 2200 50  0001 C CNN
F 3 "" H 4300 2200 50  0001 C CNN
	1    4300 2200
	-1   0    0    1   
$EndComp
$Comp
L Device:C C6
U 1 1 60C003BF
P 5200 2750
F 0 "C6" V 4948 2750 50  0000 C CNN
F 1 "0.1uF" V 5039 2750 50  0000 C CNN
F 2 "Capacitor_THT:C_Disc_D4.3mm_W1.9mm_P5.00mm" H 5238 2600 50  0001 C CNN
F 3 "~" H 5200 2750 50  0001 C CNN
	1    5200 2750
	0    1    1    0   
$EndComp
Wire Wire Line
	5050 2850 5050 2750
Wire Wire Line
	5350 2750 5450 2750
$Comp
L power:GND #PWR05
U 1 1 60C03FA9
P 5450 2750
F 0 "#PWR05" H 5450 2500 50  0001 C CNN
F 1 "GND" V 5455 2622 50  0000 R CNN
F 2 "" H 5450 2750 50  0001 C CNN
F 3 "" H 5450 2750 50  0001 C CNN
	1    5450 2750
	0    -1   -1   0   
$EndComp
Wire Wire Line
	4750 5250 4750 5700
Wire Wire Line
	4950 5250 4950 5700
Wire Wire Line
	4750 5700 4950 5700
Connection ~ 4950 5700
Wire Wire Line
	4950 5700 5100 5700
$Comp
L power:GND #PWR04
U 1 1 60C08D0C
P 5100 5700
F 0 "#PWR04" H 5100 5450 50  0001 C CNN
F 1 "GND" H 5105 5527 50  0000 C CNN
F 2 "" H 5100 5700 50  0001 C CNN
F 3 "" H 5100 5700 50  0001 C CNN
	1    5100 5700
	1    0    0    -1  
$EndComp
Wire Wire Line
	4050 3350 3150 3350
Text HLabel 3150 3350 0    50   Input ~ 0
SCLK
Wire Wire Line
	4050 4050 3150 4050
Wire Wire Line
	4050 4150 3150 4150
Wire Wire Line
	4050 4250 3150 4250
Text HLabel 3150 4150 0    50   Input ~ 0
CLKIN
Text HLabel 3150 4050 0    50   Input ~ 0
BRAKE
Text HLabel 3150 4250 0    50   Input ~ 0
DIR
Wire Wire Line
	4050 4950 3150 4950
Text HLabel 3150 4950 0    50   Input ~ 0
FAULT
Wire Wire Line
	4050 4350 3150 4350
Wire Wire Line
	4050 3950 3150 3950
Text HLabel 3150 4350 0    50   Input ~ 0
Enable
Text HLabel 3150 3950 0    50   Input ~ 0
Reset
NoConn ~ 3850 3450
NoConn ~ 3850 3550
NoConn ~ 3850 3650
NoConn ~ 3850 3750
NoConn ~ 3850 4550
NoConn ~ 3900 4650
NoConn ~ 3900 4750
NoConn ~ 3900 4850
NoConn ~ 3900 5050
Wire Wire Line
	4050 3450 3850 3450
Wire Wire Line
	3850 3550 4050 3550
Wire Wire Line
	4050 3650 3850 3650
Wire Wire Line
	3850 3750 4050 3750
Wire Wire Line
	3850 4550 4050 4550
Wire Wire Line
	3900 4650 4050 4650
Wire Wire Line
	3900 4750 4050 4750
Wire Wire Line
	4050 4850 3900 4850
Wire Wire Line
	3900 5050 4050 5050
Wire Wire Line
	4950 2850 4950 2750
NoConn ~ 4950 2750
Text Label 7400 1050 0    50   ~ 0
VM
Text Label 7400 2250 0    50   ~ 0
VM
Text Label 7400 3300 0    50   ~ 0
VM
Wire Wire Line
	7350 3350 7350 3300
Wire Wire Line
	7350 3300 7400 3300
Wire Wire Line
	7350 2300 7350 2250
Wire Wire Line
	7350 2250 7400 2250
Wire Wire Line
	7350 1150 7350 1050
Wire Wire Line
	7350 1050 7400 1050
$Comp
L power:+5V #PWR?
U 1 1 60F210AC
P 5050 2350
AR Path="/60F210AC" Ref="#PWR?"  Part="1" 
AR Path="/60BA5411/60F210AC" Ref="#PWR0110"  Part="1" 
F 0 "#PWR0110" H 5050 2200 50  0001 C CNN
F 1 "+5V" H 5065 2523 50  0000 C CNN
F 2 "" H 5050 2350 50  0001 C CNN
F 3 "" H 5050 2350 50  0001 C CNN
	1    5050 2350
	0    1    1    0   
$EndComp
Wire Wire Line
	4950 2350 4850 2350
Wire Wire Line
	4850 2350 4850 2850
Connection ~ 4950 2350
$EndSCHEMATC
