(export (version D)
  (design
    (source C:\Users\Phemelo\Downloads\kicad-rpiz-uhat-template-master\kicad-rpiz-uhat-template-master\raspberrypi_zerow_uhat\_saved_raspberrypi_zerow_uhat.sch)
    (date "2021/06/04 20:42:11")
    (tool "Eeschema (5.1.0)-1")
    (sheet (number 1) (name /) (tstamps /)
      (title_block
        (title "Raspberry Pi Zero (W) uHAT Template Board")
        (company)
        (rev 1.0)
        (date 2019-02-28)
        (source _saved_raspberrypi_zerow_uhat.sch)
        (comment (number 1) (value "This Schematic is licensed under MIT Open Source License."))
        (comment (number 2) (value ""))
        (comment (number 3) (value ""))
        (comment (number 4) (value ""))))
    (sheet (number 2) (name /Sheet60BD9591/) (tstamps /60BD9592/)
      (title_block
        (title)
        (company)
        (rev)
        (date)
        (source "Power Supply.sch")
        (comment (number 1) (value ""))
        (comment (number 2) (value ""))
        (comment (number 3) (value ""))
        (comment (number 4) (value ""))))
    (sheet (number 3) (name /Status_LEDs/) (tstamps /60B6B1A9/)
      (title_block
        (title)
        (company)
        (rev)
        (date)
        (source Status_LEDs.sch)
        (comment (number 1) (value ""))
        (comment (number 2) (value ""))
        (comment (number 3) (value ""))
        (comment (number 4) (value ""))))
    (sheet (number 4) (name /OP-Amp/) (tstamps /60BC483B/)
      (title_block
        (title)
        (company)
        (rev)
        (date)
        (source OP-Amp.sch)
        (comment (number 1) (value ""))
        (comment (number 2) (value ""))
        (comment (number 3) (value ""))
        (comment (number 4) (value ""))))
    (sheet (number 5) (name /Motor_ICDriver/) (tstamps /60BA5411/)
      (title_block
        (title)
        (company)
        (rev)
        (date)
        (source Motor_IC.sch)
        (comment (number 1) (value ""))
        (comment (number 2) (value ""))
        (comment (number 3) (value ""))
        (comment (number 4) (value "")))))
  (components
    (comp (ref H1)
      (value MountingHole)
      (footprint lib:MountingHole_2.7mm_M2.5_uHAT_RPi)
      (datasheet ~)
      (libsource (lib Mechanical) (part MountingHole) (description "Mounting Hole without connection"))
      (sheetpath (names /) (tstamps /))
      (tstamp 5C7C4C81))
    (comp (ref H2)
      (value MountingHole)
      (footprint lib:MountingHole_2.7mm_M2.5_uHAT_RPi)
      (datasheet ~)
      (libsource (lib Mechanical) (part MountingHole) (description "Mounting Hole without connection"))
      (sheetpath (names /) (tstamps /))
      (tstamp 5C7C7FBC))
    (comp (ref H3)
      (value MountingHole)
      (footprint lib:MountingHole_2.7mm_M2.5_uHAT_RPi)
      (datasheet ~)
      (libsource (lib Mechanical) (part MountingHole) (description "Mounting Hole without connection"))
      (sheetpath (names /) (tstamps /))
      (tstamp 5C7C8014))
    (comp (ref H4)
      (value MountingHole)
      (footprint lib:MountingHole_2.7mm_M2.5_uHAT_RPi)
      (datasheet ~)
      (libsource (lib Mechanical) (part MountingHole) (description "Mounting Hole without connection"))
      (sheetpath (names /) (tstamps /))
      (tstamp 5C7C8030))
    (comp (ref J1)
      (value GPIO_CONNECTOR)
      (footprint lib:PinSocket_2x20_P2.54mm_Vertical_Centered_Anchor)
      (datasheet ~)
      (libsource (lib Connector_Generic) (part Conn_02x20_Odd_Even) (description "Generic connector, double row, 02x20, odd/even pin numbering scheme (row 1 odd numbers, row 2 even numbers), script generated (kicad-library-utils/schlib/autogen/connector/)"))
      (sheetpath (names /) (tstamps /))
      (tstamp 5C77771F))
    (comp (ref J3)
      (value Conn_01x02_Female)
      (datasheet ~)
      (libsource (lib Connector) (part Conn_01x02_Female) (description "Generic connector, single row, 01x02, script generated (kicad-library-utils/schlib/autogen/connector/)"))
      (sheetpath (names /) (tstamps /))
      (tstamp 60D33B7A))
    (comp (ref J2)
      (value Conn_01x08_Female)
      (datasheet ~)
      (libsource (lib Connector) (part Conn_01x08_Female) (description "Generic connector, single row, 01x08, script generated (kicad-library-utils/schlib/autogen/connector/)"))
      (sheetpath (names /) (tstamps /))
      (tstamp 60D3B015))
    (comp (ref C1)
      (value 22u)
      (datasheet ~)
      (libsource (lib Device) (part CP1) (description "Polarized capacitor, US symbol"))
      (sheetpath (names /Sheet60BD9591/) (tstamps /60BD9592/))
      (tstamp 60B44347))
    (comp (ref L1)
      (value 470u)
      (datasheet ~)
      (libsource (lib pspice) (part INDUCTOR) (description "Capacitor symbol for simulation only"))
      (sheetpath (names /Sheet60BD9591/) (tstamps /60BD9592/))
      (tstamp 60B37AE2))
    (comp (ref Q1)
      (value BSB012NE2LXI)
      (footprint Package_DirectFET:DirectFET_MX)
      (datasheet https://www.infineon.com/dgdl/Infineon-BSB012NE2LXI-DS-v02_01-EN.pdf?fileId=db3a30433f764301013f805e3eb247c1)
      (libsource (lib Transistor_FET) (part BSB012NE2LXI) (description "170A Id, 25V Vds, 1.2mOhm Rds, N-Channel MOSFET, DirectFET MX"))
      (sheetpath (names /Sheet60BD9591/) (tstamps /60BD9592/))
      (tstamp 60B821B0))
    (comp (ref R20)
      (value 950)
      (datasheet ~)
      (libsource (lib Device) (part R) (description Resistor))
      (sheetpath (names /Sheet60BD9591/) (tstamps /60BD9592/))
      (tstamp 60BA771E))
    (comp (ref R21)
      (value 250)
      (datasheet ~)
      (libsource (lib Device) (part R) (description Resistor))
      (sheetpath (names /Sheet60BD9591/) (tstamps /60BD9592/))
      (tstamp 60BA7D16))
    (comp (ref D8)
      (value MBR0540)
      (footprint Diode_SMD:D_SOD-123)
      (datasheet "http://www.mccsemi.com/up_pdf/MBR0520~MBR0580(SOD123).pdf")
      (libsource (lib Diode) (part MBR0540) (description "40V 0.5A Schottky Power Rectifier Diode, SOD-123"))
      (sheetpath (names /Sheet60BD9591/) (tstamps /60BD9592/))
      (tstamp 60BAD4CD))
    (comp (ref D6)
      (value "LED- Motor Off")
      (datasheet ~)
      (libsource (lib Device) (part LED) (description "Light emitting diode"))
      (sheetpath (names /Status_LEDs/) (tstamps /60B6B1A9/))
      (tstamp 60B6BC20))
    (comp (ref D5)
      (value "LED-On Foward")
      (datasheet ~)
      (libsource (lib Device) (part LED) (description "Light emitting diode"))
      (sheetpath (names /Status_LEDs/) (tstamps /60B6B1A9/))
      (tstamp 60B6C169))
    (comp (ref D4)
      (value "LED- On Reverse")
      (datasheet ~)
      (libsource (lib Device) (part LED) (description "Light emitting diode"))
      (sheetpath (names /Status_LEDs/) (tstamps /60B6B1A9/))
      (tstamp 60B6C817))
    (comp (ref D3)
      (value "LED- Low Speed")
      (datasheet ~)
      (libsource (lib Device) (part LED) (description "Light emitting diode"))
      (sheetpath (names /Status_LEDs/) (tstamps /60B6B1A9/))
      (tstamp 60B6CF47))
    (comp (ref D2)
      (value "LED-Medium Speed")
      (datasheet ~)
      (libsource (lib Device) (part LED) (description "Light emitting diode"))
      (sheetpath (names /Status_LEDs/) (tstamps /60B6B1A9/))
      (tstamp 60B6D3F3))
    (comp (ref D1)
      (value "LED- High Speed")
      (datasheet ~)
      (libsource (lib Device) (part LED) (description "Light emitting diode"))
      (sheetpath (names /Status_LEDs/) (tstamps /60B6B1A9/))
      (tstamp 60B6D548))
    (comp (ref R6)
      (value 2K)
      (datasheet ~)
      (libsource (lib Device) (part R_Small) (description "Resistor, small symbol"))
      (sheetpath (names /Status_LEDs/) (tstamps /60B6B1A9/))
      (tstamp 60B6D9C1))
    (comp (ref R5)
      (value 2K)
      (datasheet ~)
      (libsource (lib Device) (part R_Small) (description "Resistor, small symbol"))
      (sheetpath (names /Status_LEDs/) (tstamps /60B6B1A9/))
      (tstamp 60B6DD0F))
    (comp (ref R4)
      (value 2K)
      (datasheet ~)
      (libsource (lib Device) (part R_Small) (description "Resistor, small symbol"))
      (sheetpath (names /Status_LEDs/) (tstamps /60B6B1A9/))
      (tstamp 60B6E29D))
    (comp (ref R3)
      (value 2K)
      (datasheet ~)
      (libsource (lib Device) (part R_Small) (description "Resistor, small symbol"))
      (sheetpath (names /Status_LEDs/) (tstamps /60B6B1A9/))
      (tstamp 60B6E421))
    (comp (ref R2)
      (value 2K)
      (datasheet ~)
      (libsource (lib Device) (part R_Small) (description "Resistor, small symbol"))
      (sheetpath (names /Status_LEDs/) (tstamps /60B6B1A9/))
      (tstamp 60B6E5A5))
    (comp (ref R1)
      (value 2K)
      (datasheet ~)
      (libsource (lib Device) (part R_Small) (description "Resistor, small symbol"))
      (sheetpath (names /Status_LEDs/) (tstamps /60B6B1A9/))
      (tstamp 60B6E74E))
    (comp (ref D7)
      (value LED-O/C)
      (datasheet ~)
      (libsource (lib Device) (part LED) (description "Light emitting diode"))
      (sheetpath (names /Status_LEDs/) (tstamps /60B6B1A9/))
      (tstamp 60E2CC0B))
    (comp (ref R7)
      (value 2K)
      (datasheet ~)
      (libsource (lib Device) (part R_Small) (description "Resistor, small symbol"))
      (sheetpath (names /Status_LEDs/) (tstamps /60B6B1A9/))
      (tstamp 60E2CC11))
    (comp (ref R15)
      (value 10k)
      (datasheet ~)
      (libsource (lib Device) (part R) (description Resistor))
      (sheetpath (names /OP-Amp/) (tstamps /60BC483B/))
      (tstamp 60BA57F7))
    (comp (ref R14)
      (value 33k)
      (datasheet ~)
      (libsource (lib Device) (part R) (description Resistor))
      (sheetpath (names /OP-Amp/) (tstamps /60BC483B/))
      (tstamp 60BA629C))
    (comp (ref R16)
      (value 10k)
      (datasheet ~)
      (libsource (lib Device) (part R) (description Resistor))
      (sheetpath (names /OP-Amp/) (tstamps /60BC483B/))
      (tstamp 60BBB095))
    (comp (ref R17)
      (value 10k)
      (datasheet ~)
      (libsource (lib Device) (part R) (description Resistor))
      (sheetpath (names /OP-Amp/) (tstamps /60BC483B/))
      (tstamp 60BBB09B))
    (comp (ref R19)
      (value 10k)
      (datasheet ~)
      (libsource (lib Device) (part R) (description Resistor))
      (sheetpath (names /OP-Amp/) (tstamps /60BC483B/))
      (tstamp 60BBB0B3))
    (comp (ref R18)
      (value 33k)
      (datasheet ~)
      (libsource (lib Device) (part R) (description Resistor))
      (sheetpath (names /OP-Amp/) (tstamps /60BC483B/))
      (tstamp 60BBB0B9))
    (comp (ref R8)
      (value 10k)
      (datasheet ~)
      (libsource (lib Device) (part R) (description Resistor))
      (sheetpath (names /OP-Amp/) (tstamps /60BC483B/))
      (tstamp 60BC5F9D))
    (comp (ref R9)
      (value 10k)
      (datasheet ~)
      (libsource (lib Device) (part R) (description Resistor))
      (sheetpath (names /OP-Amp/) (tstamps /60BC483B/))
      (tstamp 60BC5FA3))
    (comp (ref R10)
      (value 33k)
      (datasheet ~)
      (libsource (lib Device) (part R) (description Resistor))
      (sheetpath (names /OP-Amp/) (tstamps /60BC483B/))
      (tstamp 60BC5FC1))
    (comp (ref R12)
      (value 10k)
      (datasheet ~)
      (libsource (lib Device) (part R) (description Resistor))
      (sheetpath (names /OP-Amp/) (tstamps /60BC483B/))
      (tstamp 606BAD55))
    (comp (ref R13)
      (value 10k)
      (datasheet ~)
      (libsource (lib Device) (part R) (description Resistor))
      (sheetpath (names /OP-Amp/) (tstamps /60BC483B/))
      (tstamp 606BB335))
    (comp (ref R11)
      (value 10k)
      (datasheet ~)
      (libsource (lib Device) (part R) (description Resistor))
      (sheetpath (names /OP-Amp/) (tstamps /60BC483B/))
      (tstamp 60BC5FBB))
    (comp (ref U1)
      (value LM386)
      (datasheet http://www.ti.com/lit/ds/symlink/lm386.pdf)
      (libsource (lib Amplifier_Audio) (part LM386) (description "Low Voltage Audio Power Amplifier, DIP-8/SOIC-8/SSOP-8"))
      (sheetpath (names /OP-Amp/) (tstamps /60BC483B/))
      (tstamp 60F07B6F))
    (comp (ref U2)
      (value LM386)
      (datasheet http://www.ti.com/lit/ds/symlink/lm386.pdf)
      (libsource (lib Amplifier_Audio) (part LM386) (description "Low Voltage Audio Power Amplifier, DIP-8/SOIC-8/SSOP-8"))
      (sheetpath (names /OP-Amp/) (tstamps /60BC483B/))
      (tstamp 60F0816C))
    (comp (ref U3)
      (value LM386)
      (datasheet http://www.ti.com/lit/ds/symlink/lm386.pdf)
      (libsource (lib Amplifier_Audio) (part LM386) (description "Low Voltage Audio Power Amplifier, DIP-8/SOIC-8/SSOP-8"))
      (sheetpath (names /OP-Amp/) (tstamps /60BC483B/))
      (tstamp 60F09C0C))
    (comp (ref U5)
      (value DRV8308)
      (footprint Package_DFN_QFN:Texas_S-PVQFN-N40_EP3.52x2.62mm)
      (datasheet http://www.ti.com/lit/ds/symlink/drv8308.pdf)
      (libsource (lib Driver_Motor) (part DRV8308) (description "Brushless DC motor controller, closed loop, hall sensor inputs, current limiting, SPI interface"))
      (sheetpath (names /Motor_ICDriver/) (tstamps /60BA5411/))
      (tstamp 60BA8851))
    (comp (ref Q3)
      (value Q_NMOS_DSG)
      (datasheet ~)
      (libsource (lib Device) (part Q_NMOS_DSG) (description "N-MOSFET transistor, drain/source/gate"))
      (sheetpath (names /Motor_ICDriver/) (tstamps /60BA5411/))
      (tstamp 60BAE1CD))
    (comp (ref Q2)
      (value Q_NMOS_DSG)
      (datasheet ~)
      (libsource (lib Device) (part Q_NMOS_DSG) (description "N-MOSFET transistor, drain/source/gate"))
      (sheetpath (names /Motor_ICDriver/) (tstamps /60BA5411/))
      (tstamp 60BB1DAD))
    (comp (ref Q4)
      (value Q_NMOS_DSG)
      (datasheet ~)
      (libsource (lib Device) (part Q_NMOS_DSG) (description "N-MOSFET transistor, drain/source/gate"))
      (sheetpath (names /Motor_ICDriver/) (tstamps /60BA5411/))
      (tstamp 60BB3A22))
    (comp (ref Q5)
      (value Q_NMOS_DSG)
      (datasheet ~)
      (libsource (lib Device) (part Q_NMOS_DSG) (description "N-MOSFET transistor, drain/source/gate"))
      (sheetpath (names /Motor_ICDriver/) (tstamps /60BA5411/))
      (tstamp 60BB538F))
    (comp (ref Q6)
      (value Q_NMOS_DSG)
      (datasheet ~)
      (libsource (lib Device) (part Q_NMOS_DSG) (description "N-MOSFET transistor, drain/source/gate"))
      (sheetpath (names /Motor_ICDriver/) (tstamps /60BA5411/))
      (tstamp 60BC55C9))
    (comp (ref Q7)
      (value Q_NMOS_DSG)
      (datasheet ~)
      (libsource (lib Device) (part Q_NMOS_DSG) (description "N-MOSFET transistor, drain/source/gate"))
      (sheetpath (names /Motor_ICDriver/) (tstamps /60BA5411/))
      (tstamp 60BC676F))
    (comp (ref R22)
      (value R_Small)
      (datasheet ~)
      (libsource (lib Device) (part R_Small) (description "Resistor, small symbol"))
      (sheetpath (names /Motor_ICDriver/) (tstamps /60BA5411/))
      (tstamp 60BCF508))
    (comp (ref C5)
      (value C)
      (datasheet ~)
      (libsource (lib Device) (part C) (description "Unpolarized capacitor"))
      (sheetpath (names /Motor_ICDriver/) (tstamps /60BA5411/))
      (tstamp 60BED115))
    (comp (ref C2)
      (value C)
      (datasheet ~)
      (libsource (lib Device) (part C) (description "Unpolarized capacitor"))
      (sheetpath (names /Motor_ICDriver/) (tstamps /60BA5411/))
      (tstamp 60BF2354))
    (comp (ref C4)
      (value C)
      (datasheet ~)
      (libsource (lib Device) (part C) (description "Unpolarized capacitor"))
      (sheetpath (names /Motor_ICDriver/) (tstamps /60BA5411/))
      (tstamp 60BF52FB))
    (comp (ref C3)
      (value C)
      (datasheet ~)
      (libsource (lib Device) (part C) (description "Unpolarized capacitor"))
      (sheetpath (names /Motor_ICDriver/) (tstamps /60BA5411/))
      (tstamp 60BFBB93))
    (comp (ref C6)
      (value C)
      (datasheet ~)
      (libsource (lib Device) (part C) (description "Unpolarized capacitor"))
      (sheetpath (names /Motor_ICDriver/) (tstamps /60BA5411/))
      (tstamp 60C003BF)))
  (libparts
    (libpart (lib Amplifier_Audio) (part LM386)
      (description "Low Voltage Audio Power Amplifier, DIP-8/SOIC-8/SSOP-8")
      (docs http://www.ti.com/lit/ds/symlink/lm386.pdf)
      (footprints
        (fp SOIC*3.9x4.9mm*P1.27mm*)
        (fp DIP*W7.62mm*)
        (fp MSSOP*P0.65mm*)
        (fp TSSOP*3x3mm*P0.5mm*))
      (fields
        (field (name Reference) U)
        (field (name Value) LM386))
      (pins
        (pin (num 1) (name GAIN) (type input))
        (pin (num 2) (name -) (type input))
        (pin (num 3) (name +) (type input))
        (pin (num 4) (name GND) (type power_in))
        (pin (num 5) (name ~) (type output))
        (pin (num 6) (name V+) (type power_in))
        (pin (num 7) (name BYPASS) (type input))
        (pin (num 8) (name GAIN) (type input))))
    (libpart (lib Connector) (part Conn_01x02_Female)
      (description "Generic connector, single row, 01x02, script generated (kicad-library-utils/schlib/autogen/connector/)")
      (docs ~)
      (footprints
        (fp Connector*:*_1x??_*))
      (fields
        (field (name Reference) J)
        (field (name Value) Conn_01x02_Female))
      (pins
        (pin (num 1) (name Pin_1) (type passive))
        (pin (num 2) (name Pin_2) (type passive))))
    (libpart (lib Connector) (part Conn_01x08_Female)
      (description "Generic connector, single row, 01x08, script generated (kicad-library-utils/schlib/autogen/connector/)")
      (docs ~)
      (footprints
        (fp Connector*:*_1x??_*))
      (fields
        (field (name Reference) J)
        (field (name Value) Conn_01x08_Female))
      (pins
        (pin (num 1) (name Pin_1) (type passive))
        (pin (num 2) (name Pin_2) (type passive))
        (pin (num 3) (name Pin_3) (type passive))
        (pin (num 4) (name Pin_4) (type passive))
        (pin (num 5) (name Pin_5) (type passive))
        (pin (num 6) (name Pin_6) (type passive))
        (pin (num 7) (name Pin_7) (type passive))
        (pin (num 8) (name Pin_8) (type passive))))
    (libpart (lib Connector_Generic) (part Conn_02x20_Odd_Even)
      (description "Generic connector, double row, 02x20, odd/even pin numbering scheme (row 1 odd numbers, row 2 even numbers), script generated (kicad-library-utils/schlib/autogen/connector/)")
      (docs ~)
      (footprints
        (fp Connector*:*_2x??_*))
      (fields
        (field (name Reference) J)
        (field (name Value) Conn_02x20_Odd_Even))
      (pins
        (pin (num 1) (name Pin_1) (type passive))
        (pin (num 2) (name Pin_2) (type passive))
        (pin (num 3) (name Pin_3) (type passive))
        (pin (num 4) (name Pin_4) (type passive))
        (pin (num 5) (name Pin_5) (type passive))
        (pin (num 6) (name Pin_6) (type passive))
        (pin (num 7) (name Pin_7) (type passive))
        (pin (num 8) (name Pin_8) (type passive))
        (pin (num 9) (name Pin_9) (type passive))
        (pin (num 10) (name Pin_10) (type passive))
        (pin (num 11) (name Pin_11) (type passive))
        (pin (num 12) (name Pin_12) (type passive))
        (pin (num 13) (name Pin_13) (type passive))
        (pin (num 14) (name Pin_14) (type passive))
        (pin (num 15) (name Pin_15) (type passive))
        (pin (num 16) (name Pin_16) (type passive))
        (pin (num 17) (name Pin_17) (type passive))
        (pin (num 18) (name Pin_18) (type passive))
        (pin (num 19) (name Pin_19) (type passive))
        (pin (num 20) (name Pin_20) (type passive))
        (pin (num 21) (name Pin_21) (type passive))
        (pin (num 22) (name Pin_22) (type passive))
        (pin (num 23) (name Pin_23) (type passive))
        (pin (num 24) (name Pin_24) (type passive))
        (pin (num 25) (name Pin_25) (type passive))
        (pin (num 26) (name Pin_26) (type passive))
        (pin (num 27) (name Pin_27) (type passive))
        (pin (num 28) (name Pin_28) (type passive))
        (pin (num 29) (name Pin_29) (type passive))
        (pin (num 30) (name Pin_30) (type passive))
        (pin (num 31) (name Pin_31) (type passive))
        (pin (num 32) (name Pin_32) (type passive))
        (pin (num 33) (name Pin_33) (type passive))
        (pin (num 34) (name Pin_34) (type passive))
        (pin (num 35) (name Pin_35) (type passive))
        (pin (num 36) (name Pin_36) (type passive))
        (pin (num 37) (name Pin_37) (type passive))
        (pin (num 38) (name Pin_38) (type passive))
        (pin (num 39) (name Pin_39) (type passive))
        (pin (num 40) (name Pin_40) (type passive))))
    (libpart (lib Device) (part C)
      (description "Unpolarized capacitor")
      (docs ~)
      (footprints
        (fp C_*))
      (fields
        (field (name Reference) C)
        (field (name Value) C))
      (pins
        (pin (num 1) (name ~) (type passive))
        (pin (num 2) (name ~) (type passive))))
    (libpart (lib Device) (part CP1)
      (description "Polarized capacitor, US symbol")
      (docs ~)
      (footprints
        (fp CP_*))
      (fields
        (field (name Reference) C)
        (field (name Value) CP1))
      (pins
        (pin (num 1) (name ~) (type passive))
        (pin (num 2) (name ~) (type passive))))
    (libpart (lib Device) (part LED)
      (description "Light emitting diode")
      (docs ~)
      (footprints
        (fp LED*)
        (fp LED_SMD:*)
        (fp LED_THT:*))
      (fields
        (field (name Reference) D)
        (field (name Value) LED))
      (pins
        (pin (num 1) (name K) (type passive))
        (pin (num 2) (name A) (type passive))))
    (libpart (lib Device) (part Q_NMOS_DSG)
      (description "N-MOSFET transistor, drain/source/gate")
      (docs ~)
      (fields
        (field (name Reference) Q)
        (field (name Value) Q_NMOS_DSG))
      (pins
        (pin (num 1) (name D) (type passive))
        (pin (num 2) (name S) (type passive))
        (pin (num 3) (name G) (type input))))
    (libpart (lib Device) (part R)
      (description Resistor)
      (docs ~)
      (footprints
        (fp R_*))
      (fields
        (field (name Reference) R)
        (field (name Value) R))
      (pins
        (pin (num 1) (name ~) (type passive))
        (pin (num 2) (name ~) (type passive))))
    (libpart (lib Device) (part R_Small)
      (description "Resistor, small symbol")
      (docs ~)
      (footprints
        (fp R_*))
      (fields
        (field (name Reference) R)
        (field (name Value) R_Small))
      (pins
        (pin (num 1) (name ~) (type passive))
        (pin (num 2) (name ~) (type passive))))
    (libpart (lib Diode) (part BAT48ZFILM)
      (aliases
        (alias MBR0520LT)
        (alias MBR0520)
        (alias MBR0530)
        (alias MBR0540)
        (alias MBR0550)
        (alias MBR0560)
        (alias MBR0570)
        (alias MBR0580)
        (alias BAT42W-V)
        (alias BAT43W-V)
        (alias PMEG6010CEH))
      (description "40V 0.35A Small Signal Schottky Diode, SOD-123")
      (docs www.st.com/resource/en/datasheet/bat48.pdf)
      (footprints
        (fp D*SOD?123*))
      (fields
        (field (name Reference) D)
        (field (name Value) BAT48ZFILM)
        (field (name Footprint) Diode_SMD:D_SOD-123))
      (pins
        (pin (num 1) (name K) (type passive))
        (pin (num 2) (name A) (type passive))))
    (libpart (lib Driver_Motor) (part DRV8308)
      (description "Brushless DC motor controller, closed loop, hall sensor inputs, current limiting, SPI interface")
      (docs http://www.ti.com/lit/ds/symlink/drv8308.pdf)
      (footprints
        (fp Texas*S*PVQFN*N40*3.52x2.62mm*))
      (fields
        (field (name Reference) U)
        (field (name Value) DRV8308)
        (field (name Footprint) Package_DFN_QFN:Texas_S-PVQFN-N40_EP3.52x2.62mm))
      (pins
        (pin (num 1) (name UHP) (type input))
        (pin (num 2) (name UHN) (type input))
        (pin (num 3) (name VHP) (type input))
        (pin (num 4) (name VHN) (type input))
        (pin (num 5) (name WHP) (type input))
        (pin (num 6) (name WHN) (type input))
        (pin (num 7) (name VSW) (type power_out))
        (pin (num 8) (name FGFB) (type output))
        (pin (num 9) (name FGINN_TACH) (type input))
        (pin (num 10) (name FGINP) (type BiDi))
        (pin (num 11) (name SCLK) (type input))
        (pin (num 12) (name SCS) (type input))
        (pin (num 13) (name SMODE) (type input))
        (pin (num 14) (name SDATAI) (type input))
        (pin (num 15) (name SDATAO) (type output))
        (pin (num 16) (name FGOUT) (type output))
        (pin (num 17) (name ~FAULTn) (type output))
        (pin (num 18) (name ~LOCKn) (type output))
        (pin (num 19) (name CLKIN) (type input))
        (pin (num 20) (name BRAKE) (type input))
        (pin (num 21) (name DIR) (type input))
        (pin (num 22) (name ENABLE) (type input))
        (pin (num 23) (name RESET) (type input))
        (pin (num 24) (name VREG) (type power_out))
        (pin (num 25) (name VINT) (type passive))
        (pin (num 26) (name GND) (type power_in))
        (pin (num 27) (name VM) (type power_in))
        (pin (num 28) (name VCP) (type passive))
        (pin (num 29) (name CP2) (type passive))
        (pin (num 30) (name CP1) (type passive))
        (pin (num 31) (name ISEN) (type input))
        (pin (num 32) (name UHSG) (type output))
        (pin (num 33) (name U) (type input))
        (pin (num 34) (name ULSG) (type output))
        (pin (num 35) (name VHSG) (type output))
        (pin (num 36) (name V) (type input))
        (pin (num 37) (name VLSG) (type output))
        (pin (num 38) (name WHSG) (type output))
        (pin (num 39) (name W) (type input))
        (pin (num 40) (name WLSG) (type output))
        (pin (num 41) (name GND) (type power_in))))
    (libpart (lib Mechanical) (part MountingHole)
      (description "Mounting Hole without connection")
      (docs ~)
      (footprints
        (fp MountingHole*))
      (fields
        (field (name Reference) H)
        (field (name Value) MountingHole)))
    (libpart (lib Transistor_FET) (part BSB008NE2LX)
      (aliases
        (alias BSB012NE2LXI)
        (alias BSB013NE2LXI)
        (alias BSB014N04LX3)
        (alias BSB015N04NX3)
        (alias IRF6616)
        (alias IRF6620)
        (alias IRF6628)
        (alias IRF6635)
        (alias IRF6714M)
        (alias IRF6715M)
        (alias IRF6716M)
        (alias IRF6717M)
        (alias IRF6724M)
        (alias IRF6725M)
        (alias IRF6727M)
        (alias IRF6728M)
        (alias IRF6795M)
        (alias IRF6797M)
        (alias IRF6798M)
        (alias IRF6893M)
        (alias IRF6894M)
        (alias IRF6898M)
        (alias IRF7946)
        (alias IRF8302M)
        (alias IRF8304M)
        (alias IRF8306M)
        (alias IRF8308M))
      (description "180A Id, 25V Vds, 0.8mOhm Rds, N-Channel MOSFET, DirectFET MX")
      (docs https://www.infineon.com/dgdl/Infineon-BSB008NE2LX-DS-v02_00-EN.pdf?fileId=db3a30432e564707012e5745ca7d000e)
      (footprints
        (fp DirectFET*MX*))
      (fields
        (field (name Reference) Q)
        (field (name Value) BSB008NE2LX)
        (field (name Footprint) Package_DirectFET:DirectFET_MX))
      (pins
        (pin (num 1) (name D) (type passive))
        (pin (num 2) (name G) (type input))
        (pin (num 3) (name S) (type passive))))
    (libpart (lib pspice) (part INDUCTOR)
      (description "Capacitor symbol for simulation only")
      (docs ~)
      (fields
        (field (name Reference) L)
        (field (name Value) INDUCTOR))
      (pins
        (pin (num 1) (name 1) (type input))
        (pin (num 2) (name 2) (type input)))))
  (libraries
    (library (logical Amplifier_Audio)
      (uri "C:\\Program Files\\KiCad\\share\\kicad\\library/Amplifier_Audio.lib"))
    (library (logical Connector)
      (uri "C:\\Program Files\\KiCad\\share\\kicad\\library/Connector.lib"))
    (library (logical Connector_Generic)
      (uri "C:\\Program Files\\KiCad\\share\\kicad\\library/Connector_Generic.lib"))
    (library (logical Device)
      (uri "C:\\Program Files\\KiCad\\share\\kicad\\library/Device.lib"))
    (library (logical Diode)
      (uri "C:\\Program Files\\KiCad\\share\\kicad\\library/Diode.lib"))
    (library (logical Driver_Motor)
      (uri "C:\\Program Files\\KiCad\\share\\kicad\\library/Driver_Motor.lib"))
    (library (logical Mechanical)
      (uri "C:\\Program Files\\KiCad\\share\\kicad\\library/Mechanical.lib"))
    (library (logical Transistor_FET)
      (uri "C:\\Program Files\\KiCad\\share\\kicad\\library/Transistor_FET.lib"))
    (library (logical pspice)
      (uri "C:\\Program Files\\KiCad\\share\\kicad\\library/pspice.lib")))
  (nets
    (net (code 1) (name /Sheet60BD9591/Vin)
      (node (ref J3) (pin 2))
      (node (ref L1) (pin 1))
      (node (ref Q1) (pin 2)))
    (net (code 2) (name /Motor_ICDriver/U)
      (node (ref J2) (pin 1))
      (node (ref U5) (pin 33))
      (node (ref Q2) (pin 2))
      (node (ref Q3) (pin 1)))
    (net (code 3) (name 24V)
      (node (ref J2) (pin 7))
      (node (ref C1) (pin 1))
      (node (ref D8) (pin 1))
      (node (ref R20) (pin 1)))
    (net (code 4) (name /Motor_ICDriver/V)
      (node (ref U5) (pin 36))
      (node (ref J2) (pin 2))
      (node (ref Q5) (pin 1))
      (node (ref Q4) (pin 2)))
    (net (code 5) (name GND)
      (node (ref R22) (pin 1))
      (node (ref C6) (pin 1))
      (node (ref C3) (pin 1))
      (node (ref U5) (pin 2))
      (node (ref U5) (pin 26))
      (node (ref R9) (pin 1))
      (node (ref R18) (pin 2))
      (node (ref U1) (pin 4))
      (node (ref U2) (pin 4))
      (node (ref U3) (pin 4))
      (node (ref D7) (pin 1))
      (node (ref R17) (pin 1))
      (node (ref R14) (pin 2))
      (node (ref D2) (pin 1))
      (node (ref R13) (pin 1))
      (node (ref D3) (pin 1))
      (node (ref D4) (pin 1))
      (node (ref R10) (pin 2))
      (node (ref D5) (pin 1))
      (node (ref D6) (pin 1))
      (node (ref D1) (pin 1))
      (node (ref J1) (pin 30))
      (node (ref J1) (pin 25))
      (node (ref Q1) (pin 3))
      (node (ref J1) (pin 20))
      (node (ref C5) (pin 1))
      (node (ref C1) (pin 2))
      (node (ref U5) (pin 4))
      (node (ref J1) (pin 9))
      (node (ref J1) (pin 6))
      (node (ref J1) (pin 39))
      (node (ref J1) (pin 34))
      (node (ref J2) (pin 8))
      (node (ref J3) (pin 1))
      (node (ref R21) (pin 2))
      (node (ref J1) (pin 14))
      (node (ref U5) (pin 6))
      (node (ref U5) (pin 41)))
    (net (code 6) (name /U1)
      (node (ref J2) (pin 4))
      (node (ref U5) (pin 1))
      (node (ref R8) (pin 2)))
    (net (code 7) (name /U2)
      (node (ref U5) (pin 3))
      (node (ref J2) (pin 5))
      (node (ref R12) (pin 2)))
    (net (code 8) (name /Motor_ICDriver/W)
      (node (ref Q6) (pin 2))
      (node (ref Q7) (pin 1))
      (node (ref U5) (pin 39))
      (node (ref J2) (pin 3)))
    (net (code 9) (name /U3)
      (node (ref R16) (pin 2))
      (node (ref J2) (pin 6))
      (node (ref U5) (pin 5)))
    (net (code 18) (name /ID_SC)
      (node (ref J1) (pin 28)))
    (net (code 19) (name /GPIO15_RXD0)
      (node (ref J1) (pin 10)))
    (net (code 20) (name /GPIO18_GEN1)
      (node (ref U5) (pin 22))
      (node (ref J1) (pin 12)))
    (net (code 21) (name /GPIO23_GEN4)
      (node (ref U5) (pin 23))
      (node (ref J1) (pin 16)))
    (net (code 22) (name /GPIO24_GEN5)
      (node (ref U5) (pin 11))
      (node (ref J1) (pin 18)))
    (net (code 23) (name /GPIO8_SPI_CE0_N)
      (node (ref J1) (pin 24)))
    (net (code 24) (name /GPIO7_SPI_CE1_N)
      (node (ref J1) (pin 26)))
    (net (code 25) (name /GPIO21)
      (node (ref J1) (pin 40))
      (node (ref R3) (pin 1)))
    (net (code 26) (name /GPIO25_GEN6)
      (node (ref J1) (pin 22))
      (node (ref R7) (pin 1)))
    (net (code 27) (name /GPIO20)
      (node (ref J1) (pin 38))
      (node (ref R4) (pin 1)))
    (net (code 28) (name /GPIO12)
      (node (ref R6) (pin 1))
      (node (ref J1) (pin 32)))
    (net (code 29) (name /GPIO16)
      (node (ref J1) (pin 36))
      (node (ref R5) (pin 1)))
    (net (code 31) (name +3V3)
      (node (ref J1) (pin 1))
      (node (ref J1) (pin 17)))
    (net (code 32) (name /GPIO19)
      (node (ref J1) (pin 35))
      (node (ref R1) (pin 1)))
    (net (code 33) (name /GPIO26)
      (node (ref R2) (pin 1))
      (node (ref J1) (pin 37)))
    (net (code 38) (name /GPIO2_SDA1)
      (node (ref J1) (pin 3)))
    (net (code 43) (name /GPIO14_TXD0)
      (node (ref J1) (pin 8)))
    (net (code 44) (name /GPIO6)
      (node (ref J1) (pin 31))
      (node (ref U2) (pin 5))
      (node (ref R15) (pin 2)))
    (net (code 45) (name /GPIO13)
      (node (ref J1) (pin 33))
      (node (ref R19) (pin 2))
      (node (ref U3) (pin 5)))
    (net (code 46) (name /GPIO3_SCL1)
      (node (ref J1) (pin 5)))
    (net (code 47) (name /GPIO4_GPIO_GCLK)
      (node (ref J1) (pin 7))
      (node (ref U5) (pin 19)))
    (net (code 48) (name /GPIO17_GEN0)
      (node (ref U5) (pin 20))
      (node (ref J1) (pin 11)))
    (net (code 49) (name /GPIO27_GEN2)
      (node (ref U5) (pin 21))
      (node (ref J1) (pin 13)))
    (net (code 50) (name /GPIO22_GEN3)
      (node (ref U5) (pin 17))
      (node (ref J1) (pin 15)))
    (net (code 51) (name /GPIO10_SPI_MOSI)
      (node (ref J1) (pin 19)))
    (net (code 52) (name /GPIO9_SPI_MISO)
      (node (ref J1) (pin 21)))
    (net (code 53) (name /GPIO11_SPI_SCLK)
      (node (ref J1) (pin 23)))
    (net (code 54) (name /ID_SD)
      (node (ref J1) (pin 27)))
    (net (code 55) (name /GPIO5)
      (node (ref U1) (pin 5))
      (node (ref R11) (pin 2))
      (node (ref J1) (pin 29)))
    (net (code 56) (name "Net-(D3-Pad2)")
      (node (ref D3) (pin 2))
      (node (ref R3) (pin 2)))
    (net (code 57) (name "Net-(D2-Pad2)")
      (node (ref D2) (pin 2))
      (node (ref R2) (pin 2)))
    (net (code 58) (name "Net-(D1-Pad2)")
      (node (ref R1) (pin 2))
      (node (ref D1) (pin 2)))
    (net (code 59) (name "Net-(D4-Pad2)")
      (node (ref R4) (pin 2))
      (node (ref D4) (pin 2)))
    (net (code 60) (name "Net-(D5-Pad2)")
      (node (ref R5) (pin 2))
      (node (ref D5) (pin 2)))
    (net (code 61) (name "Net-(D6-Pad2)")
      (node (ref D6) (pin 2))
      (node (ref R6) (pin 2)))
    (net (code 62) (name "Net-(D7-Pad2)")
      (node (ref D7) (pin 2))
      (node (ref R7) (pin 2)))
    (net (code 63) (name "Net-(Q5-Pad3)")
      (node (ref Q5) (pin 3))
      (node (ref U5) (pin 37)))
    (net (code 64) (name "Net-(Q6-Pad3)")
      (node (ref Q6) (pin 3))
      (node (ref U5) (pin 38)))
    (net (code 65) (name "Net-(Q7-Pad3)")
      (node (ref U5) (pin 40))
      (node (ref Q7) (pin 3)))
    (net (code 66) (name "Net-(Q4-Pad3)")
      (node (ref U5) (pin 35))
      (node (ref Q4) (pin 3)))
    (net (code 67) (name "Net-(Q3-Pad3)")
      (node (ref Q3) (pin 3))
      (node (ref U5) (pin 34)))
    (net (code 68) (name "Net-(Q3-Pad2)")
      (node (ref Q7) (pin 2))
      (node (ref Q5) (pin 2))
      (node (ref R22) (pin 2))
      (node (ref U5) (pin 31))
      (node (ref Q3) (pin 2)))
    (net (code 69) (name "Net-(Q2-Pad3)")
      (node (ref Q2) (pin 3))
      (node (ref U5) (pin 32)))
    (net (code 70) (name "Net-(U5-Pad16)")
      (node (ref U5) (pin 16)))
    (net (code 71) (name "Net-(U5-Pad10)")
      (node (ref U5) (pin 10)))
    (net (code 72) (name "Net-(U5-Pad9)")
      (node (ref U5) (pin 9)))
    (net (code 73) (name "Net-(U5-Pad8)")
      (node (ref U5) (pin 8)))
    (net (code 74) (name "Net-(U5-Pad13)")
      (node (ref U5) (pin 13)))
    (net (code 75) (name "Net-(U5-Pad15)")
      (node (ref U5) (pin 15)))
    (net (code 76) (name "Net-(U5-Pad14)")
      (node (ref U5) (pin 14)))
    (net (code 77) (name "Net-(U5-Pad12)")
      (node (ref U5) (pin 12)))
    (net (code 78) (name "Net-(U5-Pad18)")
      (node (ref U5) (pin 18)))
    (net (code 79) (name 5V)
      (node (ref U2) (pin 6))
      (node (ref U1) (pin 6))
      (node (ref U3) (pin 6))
      (node (ref C4) (pin 1))
      (node (ref J1) (pin 4))
      (node (ref R21) (pin 1))
      (node (ref R20) (pin 2))
      (node (ref Q2) (pin 1))
      (node (ref J1) (pin 2))
      (node (ref C5) (pin 2))
      (node (ref Q6) (pin 1))
      (node (ref U5) (pin 27))
      (node (ref Q4) (pin 1)))
    (net (code 80) (name "Net-(U5-Pad7)")
      (node (ref U5) (pin 7)))
    (net (code 81) (name "Net-(C2-Pad2)")
      (node (ref U5) (pin 29))
      (node (ref C2) (pin 2)))
    (net (code 82) (name "Net-(C2-Pad1)")
      (node (ref U5) (pin 30))
      (node (ref C2) (pin 1)))
    (net (code 83) (name "Net-(C3-Pad2)")
      (node (ref U5) (pin 25))
      (node (ref C3) (pin 2)))
    (net (code 84) (name "Net-(C6-Pad2)")
      (node (ref U5) (pin 24))
      (node (ref C6) (pin 2)))
    (net (code 85) (name "Net-(C4-Pad2)")
      (node (ref U5) (pin 28))
      (node (ref C4) (pin 2)))
    (net (code 86) (name "Net-(R8-Pad1)")
      (node (ref R8) (pin 1))
      (node (ref R9) (pin 2))
      (node (ref U1) (pin 3)))
    (net (code 87) (name "Net-(R18-Pad1)")
      (node (ref R19) (pin 1))
      (node (ref R18) (pin 1))
      (node (ref U3) (pin 2)))
    (net (code 88) (name "Net-(R10-Pad1)")
      (node (ref R11) (pin 1))
      (node (ref U1) (pin 2))
      (node (ref R10) (pin 1)))
    (net (code 89) (name "Net-(R14-Pad1)")
      (node (ref R14) (pin 1))
      (node (ref R15) (pin 1))
      (node (ref U2) (pin 2)))
    (net (code 90) (name "Net-(R16-Pad1)")
      (node (ref R17) (pin 2))
      (node (ref R16) (pin 1))
      (node (ref U3) (pin 3)))
    (net (code 91) (name "Net-(U3-Pad8)")
      (node (ref U3) (pin 8)))
    (net (code 92) (name "Net-(U1-Pad1)")
      (node (ref U1) (pin 1)))
    (net (code 93) (name "Net-(U1-Pad8)")
      (node (ref U1) (pin 8)))
    (net (code 94) (name "Net-(U3-Pad7)")
      (node (ref U3) (pin 7)))
    (net (code 95) (name "Net-(U3-Pad1)")
      (node (ref U3) (pin 1)))
    (net (code 96) (name "Net-(U2-Pad7)")
      (node (ref U2) (pin 7)))
    (net (code 97) (name "Net-(U2-Pad8)")
      (node (ref U2) (pin 8)))
    (net (code 98) (name "Net-(U2-Pad1)")
      (node (ref U2) (pin 1)))
    (net (code 99) (name "Net-(U1-Pad7)")
      (node (ref U1) (pin 7)))
    (net (code 100) (name "Net-(R12-Pad1)")
      (node (ref U2) (pin 3))
      (node (ref R13) (pin 2))
      (node (ref R12) (pin 1)))
    (net (code 101) (name "Net-(D8-Pad2)")
      (node (ref D8) (pin 2))
      (node (ref Q1) (pin 1))
      (node (ref L1) (pin 2)))))