EESchema Schematic File Version 4
LIBS:_saved_raspberrypi_zerow_uhat-cache
EELAYER 29 0
EELAYER END
$Descr A4 11693 8268
encoding utf-8
Sheet 1 5
Title "Raspberry Pi Zero (W) uHAT Template Board"
Date "2019-02-28"
Rev "1.0"
Comp ""
Comment1 "This Schematic is licensed under MIT Open Source License."
Comment2 ""
Comment3 ""
Comment4 ""
$EndDescr
Wire Notes Line
	8900 4150 8900 3800
$Comp
L Mechanical:MountingHole H1
U 1 1 5C7C4C81
P 9050 4750
F 0 "H1" H 9150 4796 50  0000 L CNN
F 1 "MountingHole" H 9150 4705 50  0000 L CNN
F 2 "lib:MountingHole_2.7mm_M2.5_uHAT_RPi" H 9050 4750 50  0001 C CNN
F 3 "~" H 9050 4750 50  0001 C CNN
	1    9050 4750
	1    0    0    -1  
$EndComp
$Comp
L Mechanical:MountingHole H2
U 1 1 5C7C7FBC
P 9050 4950
F 0 "H2" H 9150 4996 50  0000 L CNN
F 1 "MountingHole" H 9150 4905 50  0000 L CNN
F 2 "lib:MountingHole_2.7mm_M2.5_uHAT_RPi" H 9050 4950 50  0001 C CNN
F 3 "~" H 9050 4950 50  0001 C CNN
	1    9050 4950
	1    0    0    -1  
$EndComp
$Comp
L Mechanical:MountingHole H3
U 1 1 5C7C8014
P 9050 5150
F 0 "H3" H 9150 5196 50  0000 L CNN
F 1 "MountingHole" H 9150 5105 50  0000 L CNN
F 2 "lib:MountingHole_2.7mm_M2.5_uHAT_RPi" H 9050 5150 50  0001 C CNN
F 3 "~" H 9050 5150 50  0001 C CNN
	1    9050 5150
	1    0    0    -1  
$EndComp
$Comp
L Mechanical:MountingHole H4
U 1 1 5C7C8030
P 9050 5350
F 0 "H4" H 9150 5396 50  0000 L CNN
F 1 "MountingHole" H 9150 5305 50  0000 L CNN
F 2 "lib:MountingHole_2.7mm_M2.5_uHAT_RPi" H 9050 5350 50  0001 C CNN
F 3 "~" H 9050 5350 50  0001 C CNN
	1    9050 5350
	1    0    0    -1  
$EndComp
Text GLabel 9550 3600 0    50   Input ~ 0
GND
$Comp
L power:GND #PWR01
U 1 1 60B7501D
P 9750 3700
F 0 "#PWR01" H 9750 3450 50  0001 C CNN
F 1 "GND" H 9755 3527 50  0000 C CNN
F 2 "" H 9750 3700 50  0001 C CNN
F 3 "" H 9750 3700 50  0001 C CNN
	1    9750 3700
	1    0    0    -1  
$EndComp
Wire Wire Line
	9550 3600 9750 3600
Wire Wire Line
	9750 3600 9750 3700
$Sheet
S 8800 1250 1500 1100
U 60BD9592
F0 "Sheet60BD9591" 50
F1 "Power Supply.sch" 50
F2 "5V" I L 8800 2200 50 
F3 "24V" I L 8800 2050 50 
F4 "GND" I L 8800 1550 50 
F5 "Vin" I L 8800 1450 50 
$EndSheet
Text GLabel 8250 2050 0    50   Input ~ 0
24V
Wire Wire Line
	8800 2050 8250 2050
Wire Wire Line
	6650 6850 6650 6050
Wire Wire Line
	6750 6950 6750 5850
Wire Wire Line
	6550 6750 6550 6150
Wire Wire Line
	3550 7050 6850 7050
Wire Wire Line
	3550 6800 3550 7050
Wire Wire Line
	2600 6800 3550 6800
Wire Wire Line
	3350 5400 3350 5950
Wire Wire Line
	3450 5850 3450 5300
Wire Wire Line
	3550 5200 3550 5750
Wire Wire Line
	2600 6050 4850 6050
$Sheet
S 550  5850 2050 1100
U 60B6B1A9
F0 "Status_LEDs" 50
F1 "Status_LEDs.sch" 50
F2 "GPIO21" I R 2600 6400 50 
F3 "GPIO19" I R 2600 6050 50 
F4 "GPIO26" I R 2600 6150 50 
F5 "GPIO20" I R 2600 6500 50 
F6 "GPIO16" I R 2600 6600 50 
F7 "GPIO12" I R 2600 6700 50 
F8 "GPIO25" I R 2600 6800 50 
$EndSheet
Wire Wire Line
	2600 6600 3750 6600
Wire Wire Line
	2600 6700 3650 6700
Wire Wire Line
	3750 6600 3750 6850
Wire Wire Line
	3650 6700 3650 6950
Wire Wire Line
	3750 6850 6650 6850
Wire Wire Line
	3650 6950 6750 6950
Wire Wire Line
	5350 6050 6650 6050
Wire Wire Line
	5350 5850 6750 5850
Wire Wire Line
	3850 6750 6550 6750
Wire Wire Line
	5350 6150 6550 6150
Wire Wire Line
	5350 6250 6450 6250
Wire Wire Line
	3950 6650 6450 6650
Wire Wire Line
	6450 6250 6450 6650
Wire Wire Line
	3850 6500 3850 6750
Wire Wire Line
	2600 6500 3850 6500
Wire Wire Line
	2600 6400 3950 6400
Wire Wire Line
	3950 6400 3950 6650
Wire Wire Line
	2600 6150 4850 6150
NoConn ~ 6400 5650
NoConn ~ 6400 5550
NoConn ~ 6400 5450
NoConn ~ 6400 4750
NoConn ~ 6400 4650
Wire Wire Line
	5350 5650 6400 5650
Wire Wire Line
	5350 4750 6400 4750
Wire Wire Line
	5350 4650 6400 4650
Text Label 5700 6250 0    50   ~ 0
GPIO21
Text Label 5700 6150 0    50   ~ 0
GPIO20
Text Label 5700 6050 0    50   ~ 0
GPIO16
Text Label 5700 5850 0    50   ~ 0
GPIO12
Text Label 5700 5650 0    50   ~ 0
ID_SC
Wire Wire Line
	5350 5550 6400 5550
Wire Wire Line
	5350 5450 6400 5450
Text Label 5700 5550 0    50   ~ 0
GPIO7_SPI_CE1_N
Text Label 5700 5450 0    50   ~ 0
GPIO8_SPI_CE0_N
Text Label 5700 5350 0    50   ~ 0
GPIO25_GEN6
Text Label 5700 5150 0    50   ~ 0
GPIO24_GEN5
Text Label 5700 5050 0    50   ~ 0
GPIO23_GEN4
Text Label 5700 4850 0    50   ~ 0
GPIO18_GEN1
Text Label 5700 4750 0    50   ~ 0
GPIO15_RXD0
Text Label 5700 4650 0    50   ~ 0
GPIO14_TXD0
NoConn ~ 3800 5650
NoConn ~ 3800 5450
NoConn ~ 3800 5350
NoConn ~ 3800 4550
NoConn ~ 3800 4450
Text Label 3900 6150 0    50   ~ 0
GPIO26
Text Label 3900 6050 0    50   ~ 0
GPIO19
Text Label 3900 5950 0    50   ~ 0
GPIO13
Text Label 3900 5850 0    50   ~ 0
GPIO6
Text Label 3900 5750 0    50   ~ 0
GPIO5
Text Label 3900 5650 0    50   ~ 0
ID_SD
Text Label 3900 5450 0    50   ~ 0
GPIO11_SPI_SCLK
Text Label 3900 5350 0    50   ~ 0
GPIO9_SPI_MISO
Wire Wire Line
	3800 4450 4850 4450
Wire Wire Line
	3800 4550 4850 4550
Wire Wire Line
	3800 5650 4850 5650
Wire Wire Line
	3800 5450 4850 5450
Wire Wire Line
	3800 5350 4850 5350
Wire Wire Line
	3800 5250 4850 5250
Text Label 3900 5250 0    50   ~ 0
GPIO10_SPI_MOSI
Text Label 3900 5050 0    50   ~ 0
GPIO22_GEN3
Text Label 3900 4950 0    50   ~ 0
GPIO27_GEN2
Text Label 3900 4850 0    50   ~ 0
GPIO17_GEN0
Text Label 3900 4650 0    50   ~ 0
GPIO4_GPIO_GCLK
Text Label 3900 4550 0    50   ~ 0
GPIO3_SCL1
Text Label 3900 4450 0    50   ~ 0
GPIO2_SDA1
Wire Wire Line
	6000 4250 6000 4350
Wire Wire Line
	5650 4350 6000 4350
$Comp
L power:PWR_FLAG #FLG0103
U 1 1 5C77CEFA
P 6000 4250
F 0 "#FLG0103" H 6000 4325 50  0001 C CNN
F 1 "PWR_FLAG" H 6000 4424 50  0000 C CNN
F 2 "" H 6000 4250 50  0001 C CNN
F 3 "~" H 6000 4250 50  0001 C CNN
	1    6000 4250
	1    0    0    -1  
$EndComp
Wire Wire Line
	4200 4350 4600 4350
Wire Wire Line
	4200 4350 4200 4250
Wire Wire Line
	4600 4350 4850 4350
Wire Notes Line
	8900 3800 7050 3800
Wire Notes Line
	7050 4150 8900 4150
Wire Notes Line
	7050 3800 7050 4150
Text Notes 7100 4100 0    50   ~ 10
If back powering Pi with 5V \nNOTE that the Raspberry Pi 3B+ and Pi Zero \nand ZeroW do not include an input ZVD.
Wire Wire Line
	4250 6450 4250 6500
$Comp
L power:PWR_FLAG #FLG0102
U 1 1 5C778511
P 4250 6450
F 0 "#FLG0102" H 4250 6525 50  0001 C CNN
F 1 "PWR_FLAG" H 4250 6624 50  0000 C CNN
F 2 "" H 4250 6450 50  0001 C CNN
F 3 "~" H 4250 6450 50  0001 C CNN
	1    4250 6450
	1    0    0    -1  
$EndComp
$Comp
L power:GND #PWR0105
U 1 1 5C778504
P 4250 6500
F 0 "#PWR0105" H 4250 6250 50  0001 C CNN
F 1 "GND" H 4255 6327 50  0001 C CNN
F 2 "" H 4250 6500 50  0001 C CNN
F 3 "" H 4250 6500 50  0001 C CNN
	1    4250 6500
	1    0    0    -1  
$EndComp
$Comp
L power:PWR_FLAG #FLG0101
U 1 1 5C77824A
P 4200 4250
F 0 "#FLG0101" H 4200 4325 50  0001 C CNN
F 1 "PWR_FLAG" H 4200 4424 50  0000 C CNN
F 2 "" H 4200 4250 50  0001 C CNN
F 3 "~" H 4200 4250 50  0001 C CNN
	1    4200 4250
	1    0    0    -1  
$EndComp
Connection ~ 5650 4350
Wire Wire Line
	5650 4450 5650 4350
Wire Wire Line
	5350 4450 5650 4450
Wire Wire Line
	5650 4350 5650 4250
Wire Wire Line
	5350 4350 5650 4350
$Comp
L power:+5V #PWR0104
U 1 1 5C777E01
P 5650 4250
F 0 "#PWR0104" H 5650 4100 50  0001 C CNN
F 1 "+5V" H 5665 4423 50  0000 C CNN
F 2 "" H 5650 4250 50  0001 C CNN
F 3 "" H 5650 4250 50  0001 C CNN
	1    5650 4250
	1    0    0    -1  
$EndComp
Connection ~ 4600 4350
Wire Wire Line
	4600 5150 4600 4350
Wire Wire Line
	4850 5150 4600 5150
Wire Wire Line
	4600 4350 4600 4250
$Comp
L power:+3.3V #PWR0103
U 1 1 5C777AB0
P 4600 4250
F 0 "#PWR0103" H 4600 4100 50  0001 C CNN
F 1 "+3.3V" H 4615 4423 50  0000 C CNN
F 2 "" H 4600 4250 50  0001 C CNN
F 3 "" H 4600 4250 50  0001 C CNN
	1    4600 4250
	1    0    0    -1  
$EndComp
Wire Wire Line
	5550 5950 5550 6400
Connection ~ 5550 5950
Wire Wire Line
	5350 5950 5550 5950
Wire Wire Line
	5550 5750 5550 5950
Connection ~ 5550 5750
Wire Wire Line
	5550 5250 5550 5750
Wire Wire Line
	5350 5750 5550 5750
Connection ~ 5550 5250
Wire Wire Line
	5350 5250 5550 5250
Wire Wire Line
	5550 4950 5550 5250
Connection ~ 5550 4950
Wire Wire Line
	5350 4950 5550 4950
Wire Wire Line
	5550 4550 5550 4950
Wire Wire Line
	5350 4550 5550 4550
Wire Wire Line
	4650 6250 4650 6400
Connection ~ 4650 6250
Wire Wire Line
	4850 6250 4650 6250
Wire Wire Line
	4650 5550 4650 6250
Connection ~ 4650 5550
Wire Wire Line
	4850 5550 4650 5550
Wire Wire Line
	4650 4750 4650 5550
Wire Wire Line
	4850 4750 4650 4750
$Comp
L power:GND #PWR0102
U 1 1 5C777838
P 5550 6400
F 0 "#PWR0102" H 5550 6150 50  0001 C CNN
F 1 "GND" H 5555 6227 50  0001 C CNN
F 2 "" H 5550 6400 50  0001 C CNN
F 3 "" H 5550 6400 50  0001 C CNN
	1    5550 6400
	1    0    0    -1  
$EndComp
$Comp
L power:GND #PWR0101
U 1 1 5C777805
P 4650 6400
F 0 "#PWR0101" H 4650 6150 50  0001 C CNN
F 1 "GND" H 4655 6227 50  0001 C CNN
F 2 "" H 4650 6400 50  0001 C CNN
F 3 "" H 4650 6400 50  0001 C CNN
	1    4650 6400
	1    0    0    -1  
$EndComp
$Comp
L Connector_Generic:Conn_02x20_Odd_Even J1
U 1 1 5C77771F
P 5050 5250
F 0 "J1" H 5100 6367 50  0000 C CNN
F 1 "GPIO_CONNECTOR" H 5100 6276 50  0000 C CNN
F 2 "lib:PinSocket_2x20_P2.54mm_Vertical_Centered_Anchor" H 5050 5250 50  0001 C CNN
F 3 "~" H 5050 5250 50  0001 C CNN
	1    5050 5250
	1    0    0    -1  
$EndComp
Wire Wire Line
	6850 7050 6850 5350
Wire Wire Line
	3650 4650 4850 4650
Wire Wire Line
	3300 3750 3350 3750
Wire Wire Line
	3550 4850 4850 4850
Wire Wire Line
	3350 5050 4850 5050
Wire Wire Line
	3550 3550 3300 3550
Wire Wire Line
	3300 3450 3650 3450
Wire Wire Line
	3450 3650 3300 3650
Wire Wire Line
	3450 4950 4850 4950
Wire Wire Line
	3650 3450 3650 4650
$Comp
L Connector:Conn_01x02_Female J3
U 1 1 60D33B7A
P 8000 1550
F 0 "J3" H 7892 1225 50  0000 C CNN
F 1 "Conn_01x02_Female" H 7892 1316 50  0000 C CNN
F 2 "Connector_PinSocket_2.54mm:PinSocket_1x02_P2.54mm_Vertical_SMD_Pin1Right" H 8000 1550 50  0001 C CNN
F 3 "~" H 8000 1550 50  0001 C CNN
	1    8000 1550
	-1   0    0    1   
$EndComp
Wire Wire Line
	8800 1550 8200 1550
Wire Wire Line
	8200 1450 8800 1450
$Comp
L Connector:Conn_01x08_Female J2
U 1 1 60D3B015
P 5600 2050
F 0 "J2" H 5628 2026 50  0000 L CNN
F 1 "Conn_01x08_Female" H 5628 1935 50  0000 L CNN
F 2 "Connector_PinSocket_2.54mm:PinSocket_1x08_P2.54mm_Vertical" H 5600 2050 50  0001 C CNN
F 3 "~" H 5600 2050 50  0001 C CNN
	1    5600 2050
	1    0    0    -1  
$EndComp
Wire Wire Line
	5400 1750 3300 1750
Wire Wire Line
	3300 1850 5400 1850
Wire Wire Line
	5400 1950 3300 1950
Wire Wire Line
	3300 2400 3450 2400
Wire Wire Line
	3450 2050 5400 2050
Wire Wire Line
	5400 2150 3550 2150
Wire Wire Line
	3550 2150 3550 2550
Wire Wire Line
	3550 2550 3300 2550
Wire Wire Line
	3300 2700 3650 2700
Wire Wire Line
	3650 2250 5400 2250
Wire Wire Line
	5400 2350 5100 2350
Text GLabel 5100 2350 0    50   Input ~ 0
24V
Text GLabel 5100 2450 0    50   Input ~ 0
GND
Wire Wire Line
	5100 2450 5400 2450
Wire Wire Line
	3450 2400 3450 2050
Wire Wire Line
	3650 2700 3650 2250
Wire Wire Line
	5350 4850 6700 4850
Wire Wire Line
	5350 5050 6850 5050
Wire Wire Line
	6850 5050 6850 3250
Wire Wire Line
	6850 3250 3300 3250
Wire Wire Line
	6950 5150 6950 3000
Wire Wire Line
	5350 5150 6950 5150
Wire Wire Line
	3300 3350 6700 3350
Wire Wire Line
	6700 3350 6700 4850
$Sheet
S 900  4100 1700 1500
U 60BC483B
F0 "OP-Amp" 50
F1 "OP-Amp.sch" 50
F2 "GPIO6" I R 2600 5300 50 
F3 "GPIO13" I R 2600 5400 50 
F4 "HEADER_P3" I R 2600 4450 50 
F5 "GPIO5" I R 2600 5200 50 
F6 "HEADER_P1" I R 2600 4250 50 
F7 "HEADER_P2" I R 2600 4350 50 
$EndSheet
Wire Wire Line
	2600 5200 3550 5200
Wire Wire Line
	2600 5300 3450 5300
Wire Wire Line
	2600 4250 2700 4250
Wire Wire Line
	2600 4350 2700 4350
Wire Wire Line
	2600 4450 2700 4450
Wire Wire Line
	3650 2700 3850 2700
Connection ~ 3650 2700
Wire Wire Line
	3550 2550 3850 2550
Connection ~ 3550 2550
Wire Wire Line
	3450 2400 3850 2400
Connection ~ 3450 2400
Text Label 2700 4250 0    50   ~ 0
U1
Text Label 2700 4450 0    50   ~ 0
U3
Text Label 2700 4350 0    50   ~ 0
U2
Text Label 3850 2400 0    50   ~ 0
U1
Text Label 3850 2700 0    50   ~ 0
U3
Text Label 3850 2550 0    50   ~ 0
U2
Wire Wire Line
	4850 5750 3550 5750
Wire Wire Line
	4850 5850 3450 5850
Wire Wire Line
	5350 5350 6850 5350
Wire Wire Line
	8250 2200 8800 2200
Text GLabel 8250 2200 0    50   Input ~ 0
5V
Wire Wire Line
	3300 3000 6950 3000
$Sheet
S 900  1450 2400 2400
U 60BA5411
F0 "Motor_ICDriver" 50
F1 "Motor_IC.sch" 50
F2 "U2" I R 3300 2550 50 
F3 "U3" I R 3300 2700 50 
F4 "U1" I R 3300 2400 50 
F5 "U" I R 3300 1750 50 
F6 "V" I R 3300 1850 50 
F7 "W" I R 3300 1950 50 
F8 "SCLK" I R 3300 3000 50 
F9 "CLKIN" I R 3300 3450 50 
F10 "BRAKE" I R 3300 3550 50 
F11 "DIR" I R 3300 3650 50 
F12 "FAULT" I R 3300 3750 50 
F13 "Enable" I R 3300 3350 50 
F14 "Reset" I R 3300 3250 50 
$EndSheet
Wire Wire Line
	3450 4950 3450 3650
Wire Wire Line
	3550 4850 3550 3550
Wire Wire Line
	3350 3750 3350 5050
$Comp
L power:+5V #PWR0106
U 1 1 60F1504D
P 8200 2900
F 0 "#PWR0106" H 8200 2750 50  0001 C CNN
F 1 "+5V" H 8215 3073 50  0000 C CNN
F 2 "" H 8200 2900 50  0001 C CNN
F 3 "" H 8200 2900 50  0001 C CNN
	1    8200 2900
	0    -1   -1   0   
$EndComp
Text GLabel 8200 2700 2    50   Input ~ 0
5V
Wire Wire Line
	8200 2900 8200 2700
NoConn ~ 3800 5250
Wire Wire Line
	2600 5400 3350 5400
Wire Wire Line
	3350 5950 4850 5950
$EndSCHEMATC
